{
  "id": "6",
  "title": "주간 졸음 척도(Epworth Sleepiness Scale, ESS)",
  "subTitle": "다음 상황에서 졸리거나 잠이 들 가능성은 얼마나 될까요?<br>다음과 같은 상황이 없었더라도, 그런 상황에 놓이면 어떻게 될지 가정해서 모두 답해주시면 고맙겠습니다.<br>아래 점수를 기준으로 가장 적당한 점수에 표시해주세요.",
  "pages": [
    {
      "id": "1",
      "title": "0 = 전혀 졸리지 않다.<br>1 = 약간 졸 가능성이 있다.(10 ~ 20%)<br>2 = 중간 정도로 졸 가능성이 있다.(50% 정도)<br>3 = 거의 매번 졸게 된다.(80 ~ 90%)",
      "surveys": [
        {
          "id": "ess1",
          "title": "1. 앉아서 책을 읽는다",
          "type": "radio1",
          "cssClass": "grid grid-8",
          "radioType": "number",
          "list": [
            {
              "id": "0",
              "role": "selector"
            },
            {
              "id": "1",
              "role": "selector"
            },
            {
              "id": "2",
              "role": "selector"
            },
            {
              "id": "3",
              "role": "selector"
            }
          ]
        },
        {
          "id": "ess2",
          "title": "2. TV 시청",
          "type": "radio1",
          "cssClass": "grid grid-8",
          "radioType": "number",
          "list": [
            {
              "id": "0",
              "role": "selector"
            },
            {
              "id": "1",
              "role": "selector"
            },
            {
              "id": "2",
              "role": "selector"
            },
            {
              "id": "3",
              "role": "selector"
            }
          ]
        },
        {
          "id": "ess3",
          "title": "3. 극장이나 강의실, 교회 등에서 조용히 앉아 있을 때",
          "type": "radio1",
          "cssClass": "grid grid-8",
          "radioType": "number",
          "list": [
            {
              "id": "0",
              "role": "selector"
            },
            {
              "id": "1",
              "role": "selector"
            },
            {
              "id": "2",
              "role": "selector"
            },
            {
              "id": "3",
              "role": "selector"
            }
          ]
        },
        {
          "id": "ess4",
          "title": "4. 승객으로 한 시간 동안 차를 타고 갈 때",
          "type": "radio1",
          "cssClass": "grid grid-8",
          "radioType": "number",
          "list": [
            {
              "id": "0",
              "role": "selector"
            },
            {
              "id": "1",
              "role": "selector"
            },
            {
              "id": "2",
              "role": "selector"
            },
            {
              "id": "3",
              "role": "selector"
            }
          ]
        },
        {
          "id": "ess5",
          "title": "5. 오후 시간에 짬이 나서 누워서 휴식을 취할 때",
          "type": "radio1",
          "cssClass": "grid grid-8",
          "radioType": "number",
          "list": [
            {
              "id": "0",
              "role": "selector"
            },
            {
              "id": "1",
              "role": "selector"
            },
            {
              "id": "2",
              "role": "selector"
            },
            {
              "id": "3",
              "role": "selector"
            }
          ]
        },
        {
          "id": "ess6",
          "title": "6. 앉아서 누군가와 대화를 나누는 경우",
          "type": "radio1",
          "cssClass": "grid grid-8",
          "radioType": "number",
          "list": [
            {
              "id": "0",
              "role": "selector"
            },
            {
              "id": "1",
              "role": "selector"
            },
            {
              "id": "2",
              "role": "selector"
            },
            {
              "id": "3",
              "role": "selector"
            }
          ]
        },
        {
          "id": "ess7",
          "title": "7. 술이 없는 점심 식사 후 조용히 앉아있는 경우",
          "type": "radio1",
          "cssClass": "grid grid-8",
          "radioType": "number",
          "list": [
            {
              "id": "0",
              "role": "selector"
            },
            {
              "id": "1",
              "role": "selector"
            },
            {
              "id": "2",
              "role": "selector"
            },
            {
              "id": "3",
              "role": "selector"
            }
          ]
        },
        {
          "id": "ess8",
          "title": "8. 운전 중에 교통이 정체되어 몇 분간 멈춰서 있을 때",
          "type": "radio1",
          "cssClass": "grid grid-8",
          "radioType": "number",
          "list": [
            {
              "id": "0",
              "role": "selector"
            },
            {
              "id": "1",
              "role": "selector"
            },
            {
              "id": "2",
              "role": "selector"
            },
            {
              "id": "3",
              "role": "selector"
            }
          ]
        }
      ]
    }
  ]
}