{
  "id": "2",
  "title": "화학적 유해물질 노출",
  "subTitle": "노출 기록은 안전하게 보관되며 이는 업무와 관련된 질병(산업 재해) 및 해당 질병의 진단에 매우 중요한 기록 문서입니다. <br>화재진압 후를 가정하고 작성해 주십시오.",
  "pages": [
    {
      "id": "1",
      "title": "I. 사건정보",
      "surveys": [
        {
          "id": "chem1-1",
          "type": "date1",
          "title": "1. 화재일자",
          "format": "YYYY-MM-DD",
          "formatType": "date",
          "optional": "true",
          "optionalText": "불명확함"
        },
        {
          "id": "chem1-2",
          "type": "input1",
          "title": "2. 화재장소(대략적인 주소가 건물 명칭 등)",
          "cssClass": "block",
          "list": [
            {
              "id": "0"
            }
          ]
        },
        {
          "id": "chem1-3",
          "type": "check1",
          "title": "3. 화재유형",
          "cssClass": "grid",
          "list": [
            {
              "id": "0",
              "title": "주택화재",
              "role": "selector"
            },
            {
              "id": "1",
              "title": "상업건물화재",
              "role": "selector"
            },
            {
              "id": "2",
              "title": "공업건물화재",
              "role": "selector"
            },
            {
              "id": "3",
              "title": "차량화재",
              "role": "selector"
            },
            {
              "id": "4",
              "title": "지하철화재",
              "role": "selector"
            },
            {
              "id": "5",
              "title": "임야화재(산불 등)",
              "role": "selector"
            },
            {
              "id": "6",
              "title": "폭발",
              "role": "selector"
            },
            {
              "id": "7",
              "title": "가스유출",
              "role": "selector"
            },
            {
              "id": "8",
              "title": "기타",
              "role": "etc"
            }
          ]
        },
        {
          "id": "chem1-4",
          "type": "radio1",
          "title": "4. (건축물의 경우) 대략적인 건립년도",
          "cssClass": "grid",
          "radioType": "radio",
          "list": [
            {
              "id": "0",
              "title": "1980년 이전",
              "role": "selector"
            },
            {
              "id": "1",
              "title": "1980년 ~ 1995년",
              "role": "selector"
            },
            {
              "id": "2",
              "title": "1996년 ~ 2010년",
              "role": "selector"
            },
            {
              "id": "3",
              "title": "2010년 이후",
              "role": "selector"
            }
          ]
        }
      ]
    },
    {
      "id": "2",
      "title": "II. 노출기록",
      "surveys": [
        {
          "id": "chem2-1",
          "type": "radio1",
          "title": "1. 연기 농도",
          "radioType": "radio",
          "cssClass": "grid",
          "list": [
            {
              "id": "0",
              "title": "전혀없음",
              "role": "selector"
            },
            {
              "id": "1",
              "title": "약간",
              "role": "selector"
            },
            {
              "id": "2",
              "title": "중간",
              "role": "selector"
            },
            {
              "id": "3",
              "title": "심하게",
              "role": "selector"
            },
            {
              "id": "4",
              "title": "아주 심하게",
              "role": "selector"
            }
          ]
        },
        {
          "id": "chem2-2",
          "type": "check1",
          "title": "2. 연기 색깔",
          "cssClass": "grid",
          "list": [
            {
              "id": "0",
              "title": "검정",
              "role": "selector"
            },
            {
              "id": "1",
              "title": "파랑",
              "role": "selector"
            },
            {
              "id": "2",
              "title": "갈색",
              "role": "selector"
            },
            {
              "id": "3",
              "title": "초록",
              "role": "selector"
            },
            {
              "id": "4",
              "title": "회색",
              "role": "selector"
            },
            {
              "id": "5",
              "title": "주황",
              "role": "selector"
            },
            {
              "id": "6",
              "title": "보라",
              "role": "selector"
            },
            {
              "id": "7",
              "title": "빨강",
              "role": "selector"
            },
            {
              "id": "8",
              "title": "흰색",
              "role": "selector"
            },
            {
              "id": "9",
              "title": "노랑",
              "role": "selector"
            },
            {
              "id": "10",
              "title": "알수없음",
              "role": "selector"
            },
            {
              "id": "11",
              "title": "기타",
              "role": "etc"
            }
          ]
        },
        {
          "id": "chem2-3",
          "type": "radio1",
          "title": "3. 노출 시간",
          "radioType": "radio",
          "cssClass": "grid",
          "list": [
            {
              "id": "0",
              "title": "1시간 이내",
              "role": "selector"
            },
            {
              "id": "1",
              "title": "1시간 ~ 6시간",
              "role": "selector"
            },
            {
              "id": "2",
              "title": "6시간 ~ 12시간",
              "role": "selector"
            },
            {
              "id": "3",
              "title": "12시간 ~ 18시간",
              "role": "selector"
            },
            {
              "id": "4",
              "title": "18시간 ~ 24시간",
              "role": "selector"
            },
            {
              "id": "5",
              "title": "24시간 이상",
              "role": "selector"
            }
          ]
        },
        {
          "id": "chem2-4",
          "type": "check1",
          "title": "4. 노출 경로",
          "cssClass": "grid",
          "list": [
            {
              "id": "0",
              "title": "호흡기(들이마심)",
              "role": "selector"
            },
            {
              "id": "1",
              "title": "눈",
              "role": "selector"
            },
            {
              "id": "2",
              "title": "섭취(삼킴)",
              "role": "selector"
            },
            {
              "id": "3",
              "title": "피부",
              "role": "selector"
            }
          ]
        }
      ]
    },
    {
      "id": "3",
      "title": "III. 신체 증상",
      "surveys": [
        {
          "id": "chem3",
          "type": "check1",
          "title": "노출 후, 신체에 나타난 증상들을 모두 표시하십시오.",
          "cssClass": "grid",
          "list": [
            {
              "id": "0",
              "title": "허리통증/부상",
              "role": "selector"
            },
            {
              "id": "1",
              "title": "화상",
              "role": "selector"
            },
            {
              "id": "2",
              "title": "기침",
              "role": "selector"
            },
            {
              "id": "3",
              "title": "피토함",
              "role": "selector"
            },
            {
              "id": "4",
              "title": "어지러움",
              "role": "selector"
            },
            {
              "id": "5",
              "title": "이명",
              "role": "selector"
            },
            {
              "id": "6",
              "title": "눈 따가움",
              "role": "selector"
            },
            {
              "id": "7",
              "title": "두통",
              "role": "selector"
            },
            {
              "id": "8",
              "title": "청력 손실",
              "role": "selector"
            },
            {
              "id": "9",
              "title": "열사병",
              "role": "selector"
            },
            {
              "id": "10",
              "title": "무릎통증/부상",
              "role": "selector"
            },
            {
              "id": "11",
              "title": "메스꺼움",
              "role": "selector"
            },
            {
              "id": "12",
              "title": "코피",
              "role": "selector"
            },
            {
              "id": "13",
              "title": "코/폐 염증",
              "role": "selector"
            },
            {
              "id": "14",
              "title": "부비강 염증",
              "role": "selector"
            },
            {
              "id": "15",
              "title": "피부 염증",
              "role": "selector"
            },
            {
              "id": "16",
              "title": "의식 없음",
              "role": "selector"
            },
            {
              "id": "17",
              "title": "구토",
              "role": "selector"
            },
            {
              "id": "18",
              "title": "기타",
              "role": "etc"
            }
          ]
        }
      ]
    },
    {
      "id": "4",
      "title": "IV. 노출 후 의학적 진단",
      "surveys": [
        {
          "id": "chem4-1",
          "type": "more1",
          "title": "1. 노출 후에 의사로부터 의학적 치료를 받았습니까?",
          "cssClass": "block",
          "saveMe": true,
          "list": [
            {
              "id": "1",
              "title": "예 (아래 2,3,4번 작성부탁드립니다)",
              "role": "selector",
              "surveys": [
                {
                  "id": "chem4-2",
                  "title": "2. 노출에 대한 치료를 받은 날짜",
                  "type": "date1",
                  "format": "YYYY-MM-DD",
                  "formatType": "date",
                  "optional": "true",
                  "optionalText": "불명확함"
                },
                {
                  "id": "chem4-3",
                  "title": "3. 치료병원(시설) / 의사",
                  "type": "input1",
                  "cssClass": "block",
                  "list": [
                    {
                      "id": "0",
                      "placeholder": "치료병원(시설)"
                    },
                    {
                      "id": "1",
                      "placeholder": "의사"
                    }
                  ]
                },
                {
                  "id": "chem4-4",
                  "type": "textarea1",
                  "title": "4. 의료진이 밝힌 진단에 대해 간단히 서술"
                }
              ]
            },
            {
              "id": "0",
              "title": "아니오",
              "role": "selector"
            }
          ]
        },
        {
          "id": "0",
          "type": "input4",
          "title": "신체계측(Vital Sign)",
          "cssClass": "grid",
          "list": [
            {
              "title": "혈압(좌위)",
              "cssClass": "grid",
              "list": [
                {
                  "id": "sbp",
                  "placeholder": "수축기압"
                },
                {
                  "id": "dbp",
                  "lastLabel": "mmHg",
                  "placeholder": "이완기압"
                }
              ]
            },
            {
              "title": "맥박수",
              "cssClass": "grid",
              "list": [
                {
                  "id": "pulse",
                  "lastLabel": "회/분",
                  "placeholder": "분당 맥박수"
                }
              ]
            },
            {
              "title": "신장/체중",
              "cssClass": "grid",
              "list": [
                {
                  "id": "height",
                  "lastLabel": "cm",
                  "placeholder": "신장"
                },
                {
                  "id": "weight",
                  "lastLabel": "kg",
                  "placeholder": "체중"
                }
              ]
            },
            {
              "title": "허리둘레/엉덩이둘레",
              "note": "[둘레] * 허리: 상의 안쪽, 골반과 아래쪽 갈비뼈 사이에서 가장 좁은 둘레 * 엉덩이: 엉덩이에서 가장 넓은 둘레",
              "cssClass": "grid",
              "list": [
                {
                  "id": "waist",
                  "lastLabel": "cm",
                  "placeholder": "허리 둘레"
                },
                {
                  "id": "hip",
                  "lastLabel": "cm",
                  "placeholder": "엉덩이 둘레"
                }
              ]
            }
          ]
        }
      ]
    }
  ]
}